 [{
   "id": 1,
   "name": "Eric Bobbitt",
   "profilePic": "https://avatars3.githubusercontent.com/u/19638?v=3",
   "twitter": "ericbobbitt",
   "about": "Co-creator of Ionic Framework and Angular Material Design team member. Regularly writes and speaks about hybrid development with Ionic and Angular. Proud dad, husband, veteran, and dog's best friend. Based in beautiful Madison, WI.",
   "location": "Madison, WI",
   "sessions": [{
     "id": 1,
     "content": "SAP Open Cloud Day "
   }, {
     "id": 2,
     "content": "CI and CD on the HANA Cloud Platform "
   }, {
     "id": 3,
     "content": "How HANA Cloud Platform help customers "
   }]
 }, {
   "id": 2,
   "name": "Adam Bradley",
   "profilePic": "https://avatars2.githubusercontent.com/u/452425?v=3",
   "twitter": "adamdbradley",
   "about": "Co-creator of Ionic Framework and Angular Material Design team member. Regularly writes and speaks about hybrid development with Ionic and Angular. Proud dad, husband, veteran, and dog's best friend. Based in beautiful Madison, WI.",
   "location": "Madison, WI",
   "sessions": [{
     "id": 1,
     "content": "SAP Open Cloud Day "
   }, {
     "id": 2,
     "content": "CI and CD on the HANA Cloud Platform "
   }, {
     "id": 3,
     "content": "How HANA Cloud Platform help customers "
   }]
 }, {
   "id": 3,
   "name": "Brandy Carney",
   "profilePic": "https://avatars0.githubusercontent.com/u/6577830?v=3",
   "twitter": "brandyscarney",
   "about": "Co-creator of Ionic Framework and Angular Material Design team member. Regularly writes and speaks about hybrid development with Ionic and Angular. Proud dad, husband, veteran, and dog's best friend. Based in beautiful Madison, WI.",
   "location": "Jacksonville, FL",
   "sessions": [{
     "id": 1,
     "content": "SAP Open Cloud Day "
   }, {
     "id": 2,
     "content": "CI and CD on the HANA Cloud Platform "
   }, {
     "id": 3,
     "content": "How HANA Cloud Platform help customers "
   }]
 }, {
   "id": 4,
   "name": "Katie Ginder-Vogel",
   "profilePic": "https://avatars2.githubusercontent.com/u/8117985?v=3",
   "twitter": "katiegv",
   "about": "Co-creator of Ionic Framework and Angular Material Design team member. Regularly writes and speaks about hybrid development with Ionic and Angular. Proud dad, husband, veteran, and dog's best friend. Based in beautiful Madison, WI.",
   "location": "Madison, WI",
   "sessions": [{
     "id": 1,
     "content": "SAP Open Cloud Day "
   }, {
     "id": 2,
     "content": "CI and CD on the HANA Cloud Platform "
   }, {
     "id": 3,
     "content": "How HANA Cloud Platform help customers "
   }]
 }, {
   "id": 5,
   "name": "Perry Govier",
   "profilePic": "https://avatars1.githubusercontent.com/u/571056?v=3",
   "twitter": "perrygovier",
   "about": "Co-creator of Ionic Framework and Angular Material Design team member. Regularly writes and speaks about hybrid development with Ionic and Angular. Proud dad, husband, veteran, and dog's best friend. Based in beautiful Madison, WI.",
   "location": "Madison, WI",
   "sessions": [{
     "id": 1,
     "content": "SAP Open Cloud Day "
   }, {
     "id": 2,
     "content": "CI and CD on the HANA Cloud Platform "
   }, {
     "id": 3,
     "content": "How HANA Cloud Platform help customers "
   }]
 }, {
   "id": 6,
   "name": "Mike Hartington",
   "profilePic": "https://avatars0.githubusercontent.com/u/2835826?v=3",
   "twitter": "mhartington",
   "about": "Co-creator of Ionic Framework and Angular Material Design team member. Regularly writes and speaks about hybrid development with Ionic and Angular. Proud dad, husband, veteran, and dog's best friend. Based in beautiful Madison, WI.",
   "location": "Rhode Island",
   "sessions": [{
     "id": 1,
     "content": "SAP Open Cloud Day "
   }, {
     "id": 2,
     "content": "CI and CD on the HANA Cloud Platform "
   }, {
     "id": 3,
     "content": "How HANA Cloud Platform help customers "
   }]
 }, {
   "id": 7,
   "name": "Dan Imhoff",
   "profilePic": "https://pbs.twimg.com/profile_images/627907755743952896/TEEur1pK.jpg",
   "twitter": "dwieeb",
   "about": "Co-creator of Ionic Framework and Angular Material Design team member. Regularly writes and speaks about hybrid development with Ionic and Angular. Proud dad, husband, veteran, and dog's best friend. Based in beautiful Madison, WI.",
   "location": "Madison, WI",
   "sessions": [{
     "id": 1,
     "content": "SAP Open Cloud Day "
   }, {
     "id": 2,
     "content": "CI and CD on the HANA Cloud Platform "
   }, {
     "id": 3,
     "content": "How HANA Cloud Platform help customers "
   }]
 }, {
   "id": 8,
   "name": "Brody Kidd",
   "profilePic": "https://avatars0.githubusercontent.com/u/5280265?v=3",
   "twitter": "brodymkidd",
   "about": "Co-creator of Ionic Framework and Angular Material Design team member. Regularly writes and speaks about hybrid development with Ionic and Angular. Proud dad, husband, veteran, and dog's best friend. Based in beautiful Madison, WI.",
   "location": "Madison, WI",
   "sessions": [{
     "id": 1,
     "content": "SAP Open Cloud Day "
   }, {
     "id": 2,
     "content": "CI and CD on the HANA Cloud Platform "
   }, {
     "id": 3,
     "content": "How HANA Cloud Platform help customers "
   }]
 }, {
   "id": 9,
   "name": "Tim Lancina",
   "profilePic": "https://avatars2.githubusercontent.com/u/804331?v=3",
   "twitter": "timlancina",
   "about": "Co-creator of Ionic Framework and Angular Material Design team member. Regularly writes and speaks about hybrid development with Ionic and Angular. Proud dad, husband, veteran, and dog's best friend. Based in beautiful Madison, WI.",
   "location": "Madison, WI",
   "sessions": [{
     "id": 1,
     "content": "SAP Open Cloud Day "
   }, {
     "id": 2,
     "content": "CI and CD on the HANA Cloud Platform "
   }, {
     "id": 3,
     "content": "How HANA Cloud Platform help customers "
   }]
 }, {
   "id": 10,
   "name": "Max Lynch",
   "profilePic": "https://avatars3.githubusercontent.com/u/11214?v=3",
   "twitter": "maxlynch",
   "about": "Co-creator of Ionic Framework and Angular Material Design team member. Regularly writes and speaks about hybrid development with Ionic and Angular. Proud dad, husband, veteran, and dog's best friend. Based in beautiful Madison, WI.",
   "location": "Madison, WI",
   "sessions": [{
     "id": 1,
     "content": "SAP Open Cloud Day "
   }, {
     "id": 2,
     "content": "CI and CD on the HANA Cloud Platform "
   }, {
     "id": 3,
     "content": "How HANA Cloud Platform help customers "
   }]
 }, {
   "id": 11,
   "name": "Rudy Pelrine",
   "profilePic": "https://avatars0.githubusercontent.com/u/1584992?v=3",
   "twitter": "Drawn_Closer",
   "about": "Co-creator of Ionic Framework and Angular Material Design team member. Regularly writes and speaks about hybrid development with Ionic and Angular. Proud dad, husband, veteran, and dog's best friend. Based in beautiful Madison, WI.",
   "location": "Madison, WI",
   "sessions": [{
     "id": 1,
     "content": "SAP Open Cloud Day "
   }, {
     "id": 2,
     "content": "CI and CD on the HANA Cloud Platform "
   }, {
     "id": 3,
     "content": "How HANA Cloud Platform help customers "
   }]
 }, {
   "id": 12,
   "name": "Drew Rygh",
   "profilePic": "https://avatars2.githubusercontent.com/u/2018508?v=3",
   "twitter": "ionicframework",
   "about": "Co-creator of Ionic Framework and Angular Material Design team member. Regularly writes and speaks about hybrid development with Ionic and Angular. Proud dad, husband, veteran, and dog's best friend. Based in beautiful Madison, WI.",
   "location": "Madison, WI",
   "sessions": [{
     "id": 1,
     "content": "SAP Open Cloud Day "
   }, {
     "id": 2,
     "content": "CI and CD on the HANA Cloud Platform "
   }, {
     "id": 3,
     "content": "How HANA Cloud Platform help customers "
   }]
 }, {
   "id": 13,
   "name": "Ben Sperry",
   "profilePic": "https://avatars1.githubusercontent.com/u/519526?v=3",
   "twitter": "benjsperry",
   "about": "Co-creator of Ionic Framework and Angular Material Design team member. Regularly writes and speaks about hybrid development with Ionic and Angular. Proud dad, husband, veteran, and dog's best friend. Based in beautiful Madison, WI.",
   "location": "Madison, WI",
   "sessions": [{
     "id": 1,
     "content": "SAP Open Cloud Day "
   }, {
     "id": 2,
     "content": "CI and CD on the HANA Cloud Platform "
   }, {
     "id": 3,
     "content": "How HANA Cloud Platform help customers "
   }]
 }]